{
"commands": {

"apostrophe": "$KEY apostrophe && $KEY space",
"all screen": "$KEY F11",
"are we online": "$MINDDIR/abilities/net-test.py | tee /dev/tty | $VOICE",

"back flip": "$KEY Alt+Tab",
"back space": "$KEY BackSpace",
"bottom of file": "$KEY Control+End",
"browse files": "$FILEMANAGER &",
"brightness down": "xbacklight -dec 22",
"brightness up": "xbacklight -inc 22",
"bye stella": "echo bye $USERNAME | $VOICE && $KILL oa.sh",

"check email": "$EMAIL &",
"clear": "$KEY Control+l",
"clear screen": "$KEY Control+l",
"clear terminal": "$KEY Control+l",
"close assistant": "echo bye $USERNAME | $VOICE && $KILL oa.py",
"close editor": "$KILL $EDITOR",
"close email": "$KILL $EMAIL",
"close browser": "$KILL $BROWSER",
"close other tabs": "$KEY Alt+w",
"close status": "$KILL $STATUS &",
"close system monitor": "$KILL $SYSMONITOR &",
"close tab": "$KEY Control+w",
"close terminal": "$KEY Control+d",
"close window": "$KEY Control+q",
"comma": "$KEY comma",
"commands": "$EDITOR $MINDDIR/abilities/commands.json &",
"commands file": "$EDITOR $MINDDIR/abilities/commands.json &",
"copy this text": "$KEY Control+c && echo copied | $VOICE",
"cut this text": "$KEY Control+x && echo cut | $VOICE",

"dancing banana": "stella ~/dancing-banana.bin & sleep 3 && $KILL stella",
"day is": "date +%A | $VOICE",
"day is it": "date +%A | $VOICE",
"delete word": "$KEY Control+BackSpace && $KEY BackSpace",
"disconnect network": "$DISCONNECT",
"double quote":"$KEY quotedbl",

"email": "$EMAIL &",
"end of file": "$KEY Control+End",
"end of line": "$KEY End",
"end of page": "$KEY Control+End",
"enter text": "echo go ahead | $VOICE & $DICTATE",
"exclamation": "$KEY exclam && $KEY space",
"exclamation point": "$KEY exclam && $KEY space",

"find in file": "$KEY Control+f && $KEY Control+a && $KEY Delete && echo go ahead | $VOICE && $DICTATE && $KEY Return",
"full screen": "$KEY F11",

"go back": "$KEY Control+bracketleft",
"go forward": "$KEY Control+bracketright",
"good bye stella": "echo bye $USERNAME | $VOICE && $KILL oa.sh",
"good email": "$KEY F1 && $EMAIL &",
"goto audio": "$KEY F7",
"goto browser": "$KEY F2 && $BROWSER &",
"goto chat": "$KEY F1",
"goto commands": "$KEY F5 && $EDITOR $MINDDIR/abilities/commands.json &",
"goto edit": "$KEY F5",
"goto editor": "$KEY F5 && $EDITOR &",
"goto email": "$KEY F1 && $EMAIL &",
"goto file": "$KEY F4",
"goto mail": "$KEY F3",
"goto play": "$KEY F6",
"goto system": "$KEY F3",
"goto web": "$KEY F2",

"hello": "$MINDDIR/abilities/greeting.sh",
"hello stella": "$MINDDIR/abilities/greeting.sh",
"hi stella": "$MINDDIR/abilities/greeting.sh",
"hide yourself": "$KEY KP_Delete",
"hide window": "$KEY KP_Delete",
"how much wood": "echo how much wood could a wood chuck chuck if a wood chuck could chuck wood | $VOICE",
"how old are you": "$MINDDIR/abilities/age.sh",

"i feel good": "aplay $MINDDIR/audio/james-brown.wav &",

"is the date": "$MINDDIR/abilities/date.sh | $VOICE",

"kill the fan": "$TERMINAL -x inxi -F",

"left bracket": "$KEY bracketleft && $KEY space",
"left click": "$CLICK 1",

"matrix": "$TERMINAL --fullscreen -x tmatrix -C gray -s 6 -t='there is no spoon'",
"maximize window": "$KEY Control+Up",
"me a joke": "shuf -n 1 $MINDDIR/abilities/jokes | tee /dev/tty | $VOICE",
"middle click": "$CLICK 2",
"minimize window": "$KEY Alt+F9",
"mute audio": "pamixer --mute",
"mute microphone": "echo muted | $VOICE & amixer -c 0 sset Capture nocap",

"new file": "$KEY Control+n",
"new tab": "$KEY Control+t",
"next tab": "$KEY Control+Page_Down",
"next track": "audtool --playlist-advance",
"next workspace": "$KEY Alt+Right &",
"new window": "$BROWSER & $KEY Control+t &",
"now is now": "echo time is eternal. use it. take it | $VOICE",

"old are you": "$MINDDIR/abilities/age.sh",
"old screen": "$KEY F11",
"open browser": "$BROWSER &",
"open bookmarks": "$BROWSER & $KEY Control+Shift+o &",
"open commands": "$EDITOR $MINDDIR/abilities/commands.json &",
"open commands file": "$KEY F5 && $KEY Control+Alt+d && $EDITOR $MINDDIR/abilities/commands.json &",
"open editor": "$EDITOR &",
"open email": "$EMAIL &",
"open launcher": "$KEY Control+space",
"open mah jong": "gnome-mahjongg &",
"open messages": "$MESSAGES &",
"open new tab": "$KEY Control+t",
"open files": "$FILE &",
"open file": "$KEY Control+o",
"open repository": "$BROWSER https://gitlab.com/open-assistant/oa-arch &",
"open spiral": "$MINDDIR/abilities/spiral.sh",
"open status": "$TERMINAL --command=$STATUS &",
"open system monitor": "$SYSMONITOR &",
"open tab": "$KEY Control+t",
"open terminal": "$TERMINAL &",
"open web": "$BROWSER && $KEY Control+l &",
"open youtube": "$BROWSER https://www.youtube.com &",

"page back": "$KEY Alt+Left",
"page down": "$KEY Page_Down",
"page up": "$KEY Page_Up",
"pause music": "audtool --playback-pause",
"period": "$KEY period && $KEY space",
"play music": "audtool --playback-play",
"previous page": "$KEY Alt+Left",
"previous tab": "$KEY Control+Page_Up",
"previous track": "audtool --playlist-reverse",
"previous window": "$KEY Shift+Alt+Tab",
"previous workspace": "$KEY Alt+Left &",

"question": "$KEY Alt+8 && sleep 1; wmctrl -a $BROWSER && sleep 1; $KEY Control+l && sleep 1;  $KEY Escape && sleep 1; $KEY Tab && sleep 1;  $KEY Tab && sleep 1; $KEY Tab && sleep 1; $KEY Tab && sleep 1; $KEY Control+a && $KEY Delete && $DICTATE & echo yes $USER | $VOICE",
"question mark":"$KEY question && $KEY space",
"quit browser": "$KILL $BROWSER",
"quit program": "$KEY Control+q",
"quit stella": "echo bye $USERNAME | $VOICE && $KILL oa.py",
"quotation mark":"$KEY quotedbl",

"read artificial intelligence news": "$MINDDIR/abilities/news-ai.py",
"read technology news": "$MINDDIR/abilities/news-tech.py",
"read this page": "$CLICK 1 && $KEY Control+a && xclip -o | $VOICE",
"read this text": "$KEY Control+c && xclip -o | $VOICE",
"read future news": "$MINDDIR/abilities/news-future.py",
"read hacker news": "$MINDDIR/abilities/news-hacker.py",
"read world news": "$MINDDIR/abilities/news-world.py",
"reboot machine": "$REBOOT",
"reload page": "$KEY Control+Shift+R",
"rename file": "$KEY F2",
"repeat after me": "nerd-dictation begin --full-sentence --timeout 2 | tee /dev/tty | $VOICE",
"replace in file": "$KEY Control+H",
"reset stella": "echo resetting | $VOICE && $MINDDIR/abilities/reset.sh",
"restore window": "$KEY Alt+F5",
"right click": "$CLICK 3",
"right bracket": "$KEY bracketright",
"run diagnostics": "$MINDDIR/abilities/diagnostics.sh",
"run speed test": "echo testing network speed | $VOICE && speedtest | tee /dev/tty | grep -i \"Download\\|Upload\" | $VOICE &",

"save": "$KEY Control+s & echo saved | $VOICE &",
"save file": "$KEY Control+s & echo saved | $VOICE &",
"search files": "$KEY Alt+f",
"select all": "$KEY Control+a", 
"select line": "$KEY Control+l",
"scroll down": "$KEY Page_Down",
"scroll up": "$KEY Page_Up",
"search files": "$SEARCHFILES &",
"search arch wiki": "$KEY F2 && $KEY Control+Alt+d && $KEY Control+space && sleep .3 && $KEY a && $KEY space && echo go ahead | $VOICE && $DICTATE && $KEY Return",
"search dev docs": "$KEY F2 && $KEY Control+Alt+d && $KEY Control+space && sleep .3 && $KEY d && $KEY space && echo go ahead | $VOICE && $DICTATE && $KEY Return",
"search images": "$HIDE && $KEY F2 && $KEY Control+Alt+d && $KEY Control+space && sleep .3 && $TYPE i && $KEY space && echo go ahead | $VOICE && $DICTATE && $KEY Return",
"search the web": "$KEY F2 && $KEY Control+Alt+d && $KEY Control+space && sleep .3 && $KEY s && $KEY space && echo go ahead | $VOICE && $DICTATE && $KEY Return",
"search web": "$KEY F2 && $KEY Control+Alt+d && $KEY Control+space && sleep .3 && $KEY s && $KEY space && echo go ahead | $VOICE && $DICTATE && $KEY Return",
"search wikipedia": "$KEY F2 && $KEY Control+Alt+d && $KEY Control+space && sleep .3 && $KEY w && $KEY space && echo go ahead | $VOICE && $DICTATE && $KEY Return",
"search youtube": "$KEY F2 && $KEY Control+Alt+d && $KEY Control+space && sleep .3 && $KEY y && $KEY space && echo go ahead | $VOICE && $DICTATE && $KEY Return",
"select line": "$KEY Home && Shift+End",
"show clock": "$CLOCK",
"show launcher": "$KEY Control+space",
"show link map": "$KEY f",
"show window": "$KEY KP_Delete",
"show yourself": "$KEY KP_Delete",
"shut down machine": "$SHUTDOWN", 
"sing a song": "aplay $MINDDIR/audio/daisy.wav &",
"single quote":"$KEY apostrophe",
"space": "$KEY space",
"start dictation": "echo go ahead | $VOICE & $DICTATECAPS",
"start of line": "$KEY Home",
"stella": "$MINDDIR/abilities/greeting.sh",
"stop listening": "$MINDDIR/abilities/stop-listening.sh",
"stop music": "audtool --playback-pause",
"suspend machine": "$SUSPEND",
"switch tab": "$KEY Control+Tab",
"system status": "$TERMINAL --command=$STATUS &",

"tell me a joke": "shuf -n 1 $MINDDIR/abilities/jokes | tee /dev/tty | $VOICE",
"terminal": "$TERMINAL &",
"test network": "$MINDDIR/abilities/net-test.py | tee /dev/tty | $VOICE",
"the date": "$MINDDIR/abilities/date.sh | $VOICE",
"time is": "date +%l:%M:%P | $VOICE",
"time is it": "date +%l:%M:%P | $VOICE",
"test network speed": "echo running speed test | $VOICE && speedtest | tee /dev/tty | grep -i \"Download\\|Upload\" | $VOICE &",
"top of page": "$KEY Control+Home",
"top of file": "$KEY Control+Home",
"type address": "$TYPE $ADDRESS && $KEY Return",
"type a": "$KEY a",
"type b": "$KEY b",
"type c": "$KEY c",
"type d": "$KEY d",
"type e": "$KEY e",
"type f": "$KEY f",
"type g": "$KEY g",
"type h": "$KEY h",
"type i": "$KEY i",
"type j": "$KEY j",
"type k": "$KEY k",
"type l": "$KEY l",
"type m": "$KEY m",
"type n": "$KEY n",
"type o": "$KEY o",
"type p": "$KEY p",
"type q": "$KEY q",
"type r": "$KEY r",
"type s": "$KEY s",
"type t": "$KEY t",
"type u": "$KEY u",
"type v": "$KEY v",
"type w": "$KEY w",
"type x": "$KEY x",
"type y": "$KEY y",
"type z": "$KEY z",

"type one": "$KEY 1",
"type two": "$KEY 2",
"type three": "$KEY 3",
"type four": "$KEY 4",
"type five": "$KEY 5",
"type six": "$KEY 6",
"type seven": "$KEY 7",
"type eight": "$KEY 8",
"type nine": "$KEY 9",
"type ten": "$TYPE 10",
"type eleven": "$TYPE 11",
"type twelve": "$TYPE 12",
"type thirteen": "$TYPE 13",
"type fourteen": "$TYPE 14",
"type fifteen": "$TYPE 15",
"type sixteen": "$TYPE 16",
"type seventeen": "$TYPE 17",
"type eighteen": "$TYPE 18",
"type nineteen": "$TYPE 19",
"type twenty": "$TYPE 20",
"type twenty one": "$TYPE 21",
"type twenty two": "$TYPE 22",
"type twenty three": "$TYPE 23",
"type twenty four": "$TYPE 24",

"type at symbol": "$KEY Shift+2",
"type ampersand": "$KEY ampersand && $KEY space",
"type and": "$KEY ampersand",
"type back": "$KEY Left",
"type back space": "$KEY BackSpace",
"type bang": "$KEY exclam",
"type break": "$KEY Control+c",
"type cancel": "$KEY Esc",
"type comma": "$KEY comma && $KEY space",
"type copy": "$KEY Control+c && echo copied | $VOICE",
"type delete": "$KEY Delete",
"type down": "$KEY Down",
"type email address": "$TYPE $ADDRESS",
"type escape": "$KEY Escape",
"type end": "$KEY End",
"type enter": "$KEY Return",
"type escape": "$KEY Escape",
"type exclamation": "$KEY exclam && $KEY space",
"type forward": "$KEY Right",
"type home": "$KEY Home",
"type left": "$KEY Left",
"type name": "$TYPE $NAMEFIRST && $KEY  && $KEY Return",
"type password": "$TYPE $PASSWORD",
"type paste": "$KEY Control+v",
"type period": "$KEY period && $KEY space",
"type question": "$KEY question && $KEY space",
"type question mark":"$KEY question && $KEY space",
"type redo": "$KEY Control+Shift+z",
"type return": "$KEY Return",
"type right": "$KEY Right",
"type signature": "$KEY Return $TYPE $NAMEFIRST && $KEY space && $TYPE $NAMELAST && $KEY Return && $TYPE $ADDRESS && $KEY Return && $TYPE $WEBSITE && $KEY Return",
"type space": "$KEY space",
"type tab": "$KEY Tab &",
"type undo": "$KEY Control+z",
"type up": "$KEY Up",

"unmute audio": "pamixer --unmute",
"undo close tab": "$KEY Control+Shift+t",
"update commands": "echo updating language model | $VOICE && $MINDDIR/language/quick-lm.pl -s $MINDDIR/language/commands.txt -d 0.9",
"update system": "xfce4-terminal -x pamac update --no-confirm && sleep 3 && xdotool type $PASSWORD && xdotool key Return",

"volume down": "pamixer --decrease 8 && echo down | $VOICE",
"volume up": "pamixer --increase 8 && echo up | $VOICE",

"web": "$KEY Alt+2",
"what day": "date +%A | $VOICE",
"what day is": "date +%A | $VOICE",
"what day is it": "date +%A | $VOICE",
"what is the date": "$MINDDIR/abilities/date.sh | $VOICE",
"what is the time": "date +%l:%M:%P | $VOICE",
"what is the weather": "$MINDDIR/abilities/weather.py | tee /dev/tty | $VOICE",
"what time is it": "date +%l:%M:%P | $VOICE",
"what time is": "date +%l:%M:%P | $VOICE",
"what time": "date +%l:%M:%P | $VOICE",
"wheel up": "$CLICK 4 && $CLICK 4 && $CLICK 4 && $CLICK 4",
"wheel down": "$CLICK 5 && $CLICK 5 && $CLICK 5 && $CLICK 5",

"zoom in": "$KEY Control+Shift+equal && $KEY Control+Shift+equal && Control+Shift+equal",
"zoom out": "$KEY Control+minus Control+minus $KEY Control+minus",

"</s>": "",
"<s>": ""
},
"continuous": true,
"history": true,
"microphone": true,
"interface": null,
"valid_sentence_command": false,
"invalid_sentence_command": false
}
